//Lumbridge:
// Knife on Crate:
946 - 3205 3212 0
// Knife behind bobs
946 - 3225 3203 0
// Pot on table:
1931 - 3209 3214 0
//Bowl on table:
1923 - 3208 3214 0
// Jug on table
1935 - 3211 3212 0
//Bronze arrow near staircase
882 - 3205 3227 0
//Mind rune near staircase
0558 - 3206 3208 0
// Logs near bank
1511 - 3208 3225 2
1511 - 3209 3224 2
1511 - 3205 3226 2
1511 - 3205 3224 2
// Bronze dagger on dresser
1205 - 3213 3216 1
//Bronze pickaxes on top of guard tower
1265 - 3229 3223 2
1265 - 3229 3214 2
// Iron dagger in goblin house
1203 - 3248 3245 0
// Lumbridge Swamp:
// Swamp Tar:
1939 - 3155 3163 0
1939 - 3157 3165 0
1939 - 3160 3157 0
1939 - 3166 3165 0
1939 - 3180 3163 0
1939 - 3185 3161 0
1939 - 3182 3157 0
// Leather Gloves:
1059 - 3206 3147 0
// Draynor:
// Logs:
1511 - 3087 3266 0
1511 - 3087 3265 0
//Varrock
//Pot on table in bar
1931 - 3232 3399 0
//Leather top adjacent to door in abandoned house.
1129 - 3244 3398 0
//logs on the floor on both sides of the door in abandoned house.
1511 - 3243 3395 0
1511 - 3243 3397 0
// Jug on barrel at tea stall
1935 - 3271 3409 0
// Cup of tea on table at tea stall.
1978 - 3271 3413 0
// Pie dish in Varrock Castle Kitchen.
2313 - 3222 3494 0
// Catherby
// Bucket of Water:
1929 - 2799 3453 0
// Burnt Fish
367 - 2799 3452 0
// Pie Dish
2313 - 2799 3450 0
// Knife:
946 - 2798 3450 0
// Insect Repellent
28 - 2831 3444 0
// Jug of wine
1993 - 2833 3446 0
// Seers Village
// Bucket
1925 - 2766 3441 0
// Garlic
1550 - 2714 3478 0
// Knife
946 - 2704 3475 0
// Fishing Contest Area:
1785 - 2652 3454 0
// Scorpion Catcher Tower:
946 - 2700 3407 0
// Taverly:
// Pots:
1931 - 2893 3422 0
1931 - 2894 3422 0
// Fishing Bait:
313 - 2908 3413 0
313 - 2907 3412 0
313 - 2904 3410 0
313 - 2906 3409 0
// Cup of tea:
1978 - 2914 3450 0
// Taverly Dungeon:
// Dusty Key:
1590 - 2897 9766 0
//waterbirth island
401 - 2541 3766 0
401 - 2543 3765 0
401 - 2542 3765 0
401 - 2525 3767 0
401 - 2508 3761 0
401 - 2505 3759 0
401 - 2503 3756 0
401 - 2503 3754 0
401 - 2503 3752 0
401 - 2507 3754 0
401 - 2522 3761 0
401 - 2519 3755 0
401 - 2518 3755 0
401 - 2524 3751 0
401 - 2553 3750 0
401 - 2553 3754 0
//brihaven resource dung
2347 - 1134 4495 0
2347 - 1108 4504 0
2347 - 1116 4518 0
2347 - 1143 4515 0
//varrock sewers resource dung
225 - 1316 4583 0
225 - 1310 4578 0
225 - 1304 4584 0
225 - 1307 4574 0
//taverely dungeon dugn resource 2
243 - 1008 4533 0
243 - 1012 4528 0
243 - 1012 4519 0
243 - 1003 4507 0
243 - 997 4498 0
243 - 989 4490 0
243 - 977 4493 0
243 - 969 4495 0
243 - 972 4503 0
243 - 984 4508 0
243 - 984 4508 0
243 - 993 4496 0
//edgeville hills dung
983 - 3128 9863 0
1193 - 3113 9842 0
//edgeville dung resource 2
225 - 1127 4575 0
225 - 1114 4571 0
255 - 1111 4578 0
255 - 1120 4567 0
//edgeville dung resource
201 - 988 4576 0
205 - 1002 4576 0
207 - 999 4579 0
//salve amulet e at tarn end
10588 - 3147 4666 0
//monk robes on edge monastery
544 - 3059 3488 1
542 - 3059 3487 1
544 - 3044 3488 1
542 - 3044 3487 1
//wine of zamorak at temple, added two to make it easier
245 - 2946 3473 0
245 - 2946 3474 0
//others
964 - 2977 3528 0
964 - 2978 3530 0
995 - 3108 3534 0
995 - 3103 3548 0
995 - 3099 3557 0
995 - 3098 3564 0
995 - 3099 3572 0
995 - 3097 3578 0
882 - 3110 3611 0
882 - 3109 3604 0
882 - 3105 3607 0
882 - 3101 3606 0
882 - 3103 3600 0
882 - 3098 3600 0
882 - 3098 3596 0
882 - 3103 3596 0
882 - 3101 3592 0
559 - 3223 3583 0
559 - 3232 3574 0
559 - 3229 3566 0
995 - 3234 3556 0
526 - 3246 3615 0
526 - 3244 3611 0
526 - 3237 3611 0
526 - 3234 3608 0
526 - 3235 3607 0
526 - 3235 3605 0
526 - 3236 3604 0
526 - 3237 3604 0
526 - 3237 3603 0
526 - 3238 3603 0
526 - 3239 3604 0
526 - 3239 3606 0
526 - 3232 3605 0
526 - 3233 3605 0
526 - 3235 3603 0
559 - 3021 3637 0
562 - 3021 3640 0
558 - 3023 3640 0
554 - 3026 3637 0
555 - 3028 3637 0
556 - 3030 3637 0
557 - 3032 3637 0
966 - 3289 3651 0
960 - 3291 3652 0
1281 - 3283 3658 0
966 - 3281 3663 0
966 - 3278 3664 0
960 - 3275 3664 0
526 - 3273 3664 0
526 - 3268 3660 0
526 - 3271 3658 0
966 - 3271 3656 0
526 - 3273 3660 0
526 - 3278 3657 0
526 - 3279 3659 0
526 - 3280 3658 0
526 - 3281 3658 0
526 - 3280 3657 0
526 - 3272 3690 0
532 - 3268 3689 0
526 - 3269 3686 0
532 - 3273 3686 0
526 - 3274 3688 0
526 - 3276 3688 0
526 - 3272 3683 0
526 - 3276 3682 0
526 - 3275 3680 0
526 - 3277 3676 0
526 - 3275 3675 0
532 - 3273 3676 0
526 - 3268 3679 0
532 - 3267 3678 0
960 - 3209 3681 0
966 - 3210 3684 0
960 - 3215 3680 0
1207 - 3219 3682 0
1203 - 3217 3693 0
960 - 3215 3669 0
966 - 3227 3670 0
837 - 3236 3673 0
960 - 3232 3690 0
966 - 3235 3698 0
1137 - 3239 3694 0
66 - 3245 3682 0
960 - 3244 3679 0
1985 - 3039 3707 0
1982 - 3039 3706 0
995 - 2979 3675 0
995 - 2985 3675 0
995 - 2990 3675 0
2353 - 2986 3681 0
1539 - 2986 3680 0
313 - 2988 3683 0
1887 - 2987 3686 0
2347 - 2985 3685 0
2347 - 2992 3686 0
1539 - 2992 3688 0
1539 - 2984 3685 0
966 - 2976 3682 0
960 - 2969 3682 0
526 - 2969 3689 0
1925 - 2981 3691 0
1539 - 2981 3689 0
966 - 2983 3697 0
960 - 2983 3700 0
960 - 2975 3697 0
966 - 2978 3704 0
1925 - 2970 3705 0
960 - 2974 3708 0
303 - 2999 3701 0
5343 - 2997 3703 0
313 - 2998 3705 0
5341 - 2995 3707 0
526 - 2962 3697 0
966 - 2969 3697 0
966 - 2967 3697 0
960 - 2957 3699 0
966 - 2955 3700 0
960 - 2952 3704 0
966 - 2956 3702 0
960 - 2956 3706 0
2347 - 2957 3708 0
960 - 2961 3702 0
960 - 2964 3704 0
966 - 2963 3706 0
526 - 2980 3764 0
526 - 2978 3763 0
590 - 3209 3737 0
444 - 3230 3743 0
526 - 3226 3751 0
526 - 3236 3750 0
526 - 3236 3740 0
526 - 3236 3728 0
526 - 3249 3732 0
526 - 3247 3726 0
526 - 3242 3722 0
964 - 3248 3718 0
952 - 3247 3735 0
1069 - 3249 3739 0
526 - 3249 3742 0
526 - 3248 3751 0
964 - 3240 3750 0
964 - 3256 3744 0
526 - 3257 3743 0
526 - 3256 3733 0
964 - 3258 3733 0
964 - 3335 3752 0
526 - 3334 3753 0
960 - 3279 3764 0
966 - 3279 3767 0
960 - 3271 3767 0
526 - 3255 3761 0
964 - 3253 3764 0
1191 - 3247 3795 0
564 - 2947 3898 0
555 - 2960 3899 0
1153 - 3069 3831 0
995 - 3076 3845 0
995 - 3108 3859 0
1385 - 3100 3862 0
1654 - 3065 3864 0
1119 - 3085 3859 0
559 - 3091 3865 0
562 - 3137 3833 0
562 - 3144 3826 0
562 - 3149 3823 0
562 - 3151 3831 0
562 - 3145 3814 0
562 - 3139 3814 0
1217 - 3180 3824 0
229 - 3188 3839 0
229 - 3196 3849 0
239 - 3214 3809 0
239 - 3218 3814 0
528 - 3219 3816 0
528 - 3218 3818 0
528 - 3214 3820 0
528 - 3213 3821 0
995 - 3220 3826 0
995 - 3221 3829 0
528 - 3321 3892 0
526 - 3316 3888 0
526 - 3313 3890 0
565 - 3297 3890 0
528 - 3292 3887 0
528 - 3291 3888 0
528 - 3290 3890 0
528 - 3288 3891 0
528 - 3287 3887 0
1607 - 3170 3885 0
526 - 2992 3920 0
526 - 2995 3922 0
526 - 2994 3924 0
526 - 2999 10341 0
526 - 3002 10343 0
526 - 3005 10343 0
526 - 3003 10340 0
526 - 3002 3922 0
526 - 3004 3923 0
199 - 3044 10313 0
125 - 3026 10325 0
2333 - 3042 3952 0
526 - 3250 3953 0
53 - 3240 3940 0
53 - 3237 3949 0
53 - 3235 3950 0
526 - 3232 3948 0
526 - 3236 3939 0
444 - 3291 3927 0
444 - 3292 3931 0
444 - 3296 3933 0
1173 - 3294 3935 1
444 - 3287 3932 1
444 - 3283 3936 3
1203 - 3279 3938 3
243 - 2914 9807 0
243 - 2907 9807 0
243 - 2899 9802 0
243 - 2900 9799 0
243 - 2907 9796 0
243 - 2910 9797 0
243 - 2914 9797 0
243 - 2918 9797 0
243 - 2920 9801 0
243 - 2920 9804 0
243 - 2911 9810 0
243 - 2906 9812 0
243 - 2902 9810 0
243 - 2901 9808 0
1735 - 3192 3272 0
1061 - 3210 9615 0
946 - 3215 9625 0
1965 - 3217 9623 0
1925 - 3216 9625 0
223 - 3163 9888 0
223 - 3168 9900 0
223 - 3116 9950 0
223 - 3127 9956 0
223 - 3129 9953 0
223 - 3121 9959 0
223 - 3118 9958 0
223 - 3115 9958 0
223 - 3124 9955 0
223 - 3126 9952 0
223 - 3123 9951 0